{
	"imageUrl":"file:///home/projects/node-pdf/",
    "pdfPath": "/home/projects/node-pdf/",
    "mailConfig": {
        "fromName":"qatestileaf",
        "fromMail": "qatestileaf@gmail.com",
        "smtpUsername": "qatestileaf@gmail.com",
        "smtpPassword": "forileaf2018",
        "toAddress": "rino@ileafsolutions.net"
    }

}
